[
    {
        "id": "582f58433a4fe108",
        "type": "tab",
        "label": "Fluxo 1",
        "disabled": false,
        "info": "",
        "env": []
    },
    {
        "id": "85839996c393ce4c",
        "type": "tab",
        "label": "Fluxo 2",
        "disabled": false,
        "info": "",
        "env": []
    },
    {
        "id": "ceef92ce1a9e0fdd",
        "type": "tab",
        "label": "Fluxo 3",
        "disabled": false,
        "info": "",
        "env": []
    },
    {
        "id": "5e815c2f78f3500e",
        "type": "arduino-board",
        "device": "/dev/ttyACM0"
    },
    {
        "id": "0ee3819ddda26b53",
        "type": "ui_base",
        "theme": {
            "name": "theme-light",
            "lightTheme": {
                "default": "#0094CE",
                "baseColor": "#0094CE",
                "baseFont": "-apple-system,BlinkMacSystemFont,Segoe UI,Roboto,Oxygen-Sans,Ubuntu,Cantarell,Helvetica Neue,sans-serif",
                "edited": true,
                "reset": false
            },
            "darkTheme": {
                "default": "#097479",
                "baseColor": "#097479",
                "baseFont": "-apple-system,BlinkMacSystemFont,Segoe UI,Roboto,Oxygen-Sans,Ubuntu,Cantarell,Helvetica Neue,sans-serif",
                "edited": false
            },
            "customTheme": {
                "name": "Untitled Theme 1",
                "default": "#4B7930",
                "baseColor": "#4B7930",
                "baseFont": "-apple-system,BlinkMacSystemFont,Segoe UI,Roboto,Oxygen-Sans,Ubuntu,Cantarell,Helvetica Neue,sans-serif"
            },
            "themeState": {
                "base-color": {
                    "default": "#0094CE",
                    "value": "#0094CE",
                    "edited": false
                },
                "page-titlebar-backgroundColor": {
                    "value": "#0094CE",
                    "edited": false
                },
                "page-backgroundColor": {
                    "value": "#fafafa",
                    "edited": false
                },
                "page-sidebar-backgroundColor": {
                    "value": "#ffffff",
                    "edited": false
                },
                "group-textColor": {
                    "value": "#1bbfff",
                    "edited": false
                },
                "group-borderColor": {
                    "value": "#ffffff",
                    "edited": false
                },
                "group-backgroundColor": {
                    "value": "#ffffff",
                    "edited": false
                },
                "widget-textColor": {
                    "value": "#111111",
                    "edited": false
                },
                "widget-backgroundColor": {
                    "value": "#0094ce",
                    "edited": false
                },
                "widget-borderColor": {
                    "value": "#ffffff",
                    "edited": false
                },
                "base-font": {
                    "value": "-apple-system,BlinkMacSystemFont,Segoe UI,Roboto,Oxygen-Sans,Ubuntu,Cantarell,Helvetica Neue,sans-serif"
                }
            },
            "angularTheme": {
                "primary": "indigo",
                "accents": "blue",
                "warn": "red",
                "background": "grey",
                "palette": "light"
            }
        },
        "site": {
            "name": "Supervisório",
            "hideToolbar": "false",
            "allowSwipe": "false",
            "lockMenu": "false",
            "allowTempTheme": "true",
            "dateFormat": "DD/MM/YYYY",
            "sizes": {
                "sx": 48,
                "sy": 48,
                "gx": 6,
                "gy": 6,
                "cx": 6,
                "cy": 6,
                "px": 0,
                "py": 0
            }
        }
    },
    {
        "id": "36d5781bbc852136",
        "type": "ui_tab",
        "name": "Tab 1",
        "icon": "dashboard",
        "order": 1
    },
    {
        "id": "36336c5b8c26147b",
        "type": "ui_group",
        "name": "Group 1",
        "tab": "36d5781bbc852136",
        "order": 1,
        "disp": true,
        "width": 6
    },
    {
        "id": "b21b158415a7ed41",
        "type": "inject",
        "z": "582f58433a4fe108",
        "name": "",
        "props": [
            {
                "p": "payload"
            },
            {
                "p": "topic",
                "vt": "str"
            }
        ],
        "repeat": "",
        "crontab": "",
        "once": false,
        "onceDelay": 0.1,
        "topic": "",
        "payload": "",
        "payloadType": "date",
        "x": 220,
        "y": 580,
        "wires": [
            [
                "f8b0cf5d99e8e48b",
                "020a5fda8131788c"
            ]
        ]
    },
    {
        "id": "f8b0cf5d99e8e48b",
        "type": "debug",
        "z": "582f58433a4fe108",
        "name": "debug 1",
        "active": true,
        "tosidebar": true,
        "console": false,
        "tostatus": false,
        "complete": "payload",
        "targetType": "msg",
        "statusVal": "",
        "statusType": "auto",
        "x": 460,
        "y": 580,
        "wires": []
    },
    {
        "id": "020a5fda8131788c",
        "type": "exec",
        "z": "582f58433a4fe108",
        "command": "date",
        "addpay": "",
        "append": "",
        "useSpawn": "false",
        "timer": "",
        "winHide": false,
        "oldrc": false,
        "name": "",
        "x": 450,
        "y": 660,
        "wires": [
            [
                "64ccc10af3c01941"
            ],
            [],
            []
        ]
    },
    {
        "id": "64ccc10af3c01941",
        "type": "debug",
        "z": "582f58433a4fe108",
        "name": "debug 2",
        "active": true,
        "tosidebar": true,
        "console": false,
        "tostatus": false,
        "complete": "payload",
        "targetType": "msg",
        "statusVal": "",
        "statusType": "auto",
        "x": 640,
        "y": 680,
        "wires": []
    },
    {
        "id": "e45082b4e1beecaf",
        "type": "inject",
        "z": "582f58433a4fe108",
        "name": "",
        "props": [
            {
                "p": "payload"
            },
            {
                "p": "topic",
                "vt": "str"
            }
        ],
        "repeat": "",
        "crontab": "",
        "once": false,
        "onceDelay": 0.1,
        "topic": "",
        "payload": "",
        "payloadType": "date",
        "x": 160,
        "y": 140,
        "wires": [
            [
                "2714fdead4b7e3c5",
                "afa66b5511e8ae29"
            ]
        ]
    },
    {
        "id": "5d14af361d786244",
        "type": "debug",
        "z": "582f58433a4fe108",
        "name": "debug 6",
        "active": true,
        "tosidebar": true,
        "console": false,
        "tostatus": false,
        "complete": "payload",
        "targetType": "msg",
        "statusVal": "",
        "statusType": "auto",
        "x": 420,
        "y": 140,
        "wires": []
    },
    {
        "id": "2714fdead4b7e3c5",
        "type": "function",
        "z": "582f58433a4fe108",
        "name": "incremento 1",
        "func": "var i =  context.get('i') || 0;\ni = i+1;\ncontext.set('i',i);\nmsg.payload = i;\nreturn msg;",
        "outputs": 1,
        "timeout": 0,
        "noerr": 0,
        "initialize": "",
        "finalize": "",
        "libs": [],
        "x": 330,
        "y": 280,
        "wires": [
            [
                "5d14af361d786244"
            ]
        ]
    },
    {
        "id": "afa66b5511e8ae29",
        "type": "debug",
        "z": "582f58433a4fe108",
        "name": "debug 7",
        "active": true,
        "tosidebar": true,
        "console": false,
        "tostatus": false,
        "complete": "false",
        "statusVal": "",
        "statusType": "auto",
        "x": 420,
        "y": 60,
        "wires": []
    },
    {
        "id": "ff55e29f06472435",
        "type": "arduino in",
        "z": "85839996c393ce4c",
        "name": "push_button arduino",
        "pin": "10",
        "state": "PULLUP",
        "arduino": "5e815c2f78f3500e",
        "x": 150,
        "y": 160,
        "wires": [
            [
                "b10e5aef80540d2a",
                "6fcfe873615d0504"
            ]
        ]
    },
    {
        "id": "f04ea4de3230c818",
        "type": "arduino out",
        "z": "85839996c393ce4c",
        "name": "Led",
        "pin": "12",
        "state": "OUTPUT",
        "arduino": "5e815c2f78f3500e",
        "x": 530,
        "y": 240,
        "wires": []
    },
    {
        "id": "b10e5aef80540d2a",
        "type": "debug",
        "z": "85839996c393ce4c",
        "name": "debug 4",
        "active": true,
        "tosidebar": true,
        "console": false,
        "tostatus": false,
        "complete": "payload",
        "targetType": "msg",
        "statusVal": "",
        "statusType": "auto",
        "x": 380,
        "y": 160,
        "wires": []
    },
    {
        "id": "6fcfe873615d0504",
        "type": "function",
        "z": "85839996c393ce4c",
        "name": "function 1",
        "func": "if (msg.payload == 1) msg.payload = 0;\nelse msg.payload = 1;\nreturn msg;\n//Teste",
        "outputs": 1,
        "timeout": 0,
        "noerr": 0,
        "initialize": "",
        "finalize": "",
        "libs": [],
        "x": 340,
        "y": 420,
        "wires": [
            [
                "be580aa6429c4dd8",
                "f04ea4de3230c818"
            ]
        ]
    },
    {
        "id": "be580aa6429c4dd8",
        "type": "debug",
        "z": "85839996c393ce4c",
        "name": "debug 5",
        "active": true,
        "tosidebar": true,
        "console": false,
        "tostatus": false,
        "complete": "false",
        "statusVal": "",
        "statusType": "auto",
        "x": 540,
        "y": 420,
        "wires": []
    },
    {
        "id": "f5968da83238ba02",
        "type": "ui_button",
        "z": "ceef92ce1a9e0fdd",
        "name": "",
        "group": "36336c5b8c26147b",
        "order": 0,
        "width": 0,
        "height": 0,
        "passthru": false,
        "label": "Botão 1",
        "tooltip": "",
        "color": "",
        "bgcolor": "",
        "className": "",
        "icon": "",
        "payload": "",
        "payloadType": "date",
        "topic": "topic",
        "topicType": "msg",
        "x": 180,
        "y": 180,
        "wires": [
            [
                "1a1719cae11eafe0",
                "5ff9fcdc6e9eff33"
            ]
        ]
    },
    {
        "id": "c6062fc8fad6ce23",
        "type": "ui_gauge",
        "z": "ceef92ce1a9e0fdd",
        "name": "",
        "group": "36336c5b8c26147b",
        "order": 1,
        "width": 0,
        "height": 0,
        "gtype": "gage",
        "title": "gauge",
        "label": "units",
        "format": "{{value}}",
        "min": 0,
        "max": "1100",
        "colors": [
            "#00b500",
            "#e6e600",
            "#ca3838"
        ],
        "seg1": "",
        "seg2": "",
        "diff": false,
        "className": "",
        "x": 530,
        "y": 180,
        "wires": []
    },
    {
        "id": "3428d29b099203ed",
        "type": "ui_chart",
        "z": "ceef92ce1a9e0fdd",
        "name": "",
        "group": "36336c5b8c26147b",
        "order": 2,
        "width": 0,
        "height": 0,
        "label": "chart",
        "chartType": "line",
        "legend": "false",
        "xformat": "HH:mm:ss",
        "interpolate": "linear",
        "nodata": "",
        "dot": false,
        "ymin": "",
        "ymax": "",
        "removeOlder": 1,
        "removeOlderPoints": "",
        "removeOlderUnit": "3600",
        "cutout": 0,
        "useOneColor": false,
        "useUTC": false,
        "colors": [
            "#1f77b4",
            "#aec7e8",
            "#ff7f0e",
            "#2ca02c",
            "#98df8a",
            "#d62728",
            "#ff9896",
            "#9467bd",
            "#c5b0d5"
        ],
        "outputs": 1,
        "useDifferentColor": false,
        "className": "",
        "x": 510,
        "y": 300,
        "wires": [
            []
        ]
    },
    {
        "id": "1a1719cae11eafe0",
        "type": "debug",
        "z": "ceef92ce1a9e0fdd",
        "name": "debug 8",
        "active": true,
        "tosidebar": true,
        "console": false,
        "tostatus": false,
        "complete": "false",
        "statusVal": "",
        "statusType": "auto",
        "x": 360,
        "y": 80,
        "wires": []
    },
    {
        "id": "5ff9fcdc6e9eff33",
        "type": "function",
        "z": "ceef92ce1a9e0fdd",
        "name": "function 2",
        "func": "var n = msg.payload;\nn = n/1703070996;\nmsg.payload = n;\nreturn msg;",
        "outputs": 1,
        "timeout": 0,
        "noerr": 0,
        "initialize": "",
        "finalize": "",
        "libs": [],
        "x": 320,
        "y": 300,
        "wires": [
            [
                "c6062fc8fad6ce23",
                "3428d29b099203ed"
            ]
        ]
    }
]